Arlyn Santiago Data Analysis Portfolio - cdcdata-exercise
…
#Filtering Unknown in Column Race and Ethnicity
clean_cdc_data <- cdcdata %>%
  filter(!`Race and Ethnicity` %in% c("Unknown","Overall"))

# Print the filtered data
print(clean_cdc_data)

# A tibble: 126 × 7
   Week_Ending_Date       `Race and Ethnicity`  Percent Denominator `Date Order`
   <chr>                  <chr>                   <dbl>       <dbl>        <dbl>
 1 09/30/2023 12:00:00 AM American Indian / Al…       0          57            1
 2 09/30/2023 12:00:00 AM Asian, NH                   0        2897            1
 3 09/30/2023 12:00:00 AM Black, NH                   0        1315            1
 4 09/30/2023 12:00:00 AM Hispanic/Latino             0        7072            1
 5 09/30/2023 12:00:00 AM Multiple/Other, NH          0         734            1
 6 09/30/2023 12:00:00 AM Native Hawaiian / Pa…       0         121            1
 7 09/30/2023 12:00:00 AM White, NH                   0        6073            1
 8 10/07/2023 12:00:00 AM American Indian / Al…       0          68            2
 9 10/07/2023 12:00:00 AM Asian, NH                   0        3339            2
10 10/07/2023 12:00:00 AM Black, NH                   0        1547            2
# ℹ 116 more rows
# ℹ 2 more variables: `Race Sort Order` <dbl>, Figure_ID <dbl>
…
#Filtering Unknown in Column Race and Ethnicity
clean_cdc_data <- cdcdata %>%
  filter(!`Race and Ethnicity` %in% c("Unknown","Overall"))

# Print the filtered data
print(clean_cdc_data)

# A tibble: 126 × 7
   Week_Ending_Date       `Race and Ethnicity`  Percent Denominator `Date Order`
   <chr>                  <chr>                   <dbl>       <dbl>        <dbl>
 1 09/30/2023 12:00:00 AM American Indian / Al…       0          57            1
 2 09/30/2023 12:00:00 AM Asian, NH                   0        2897            1
 3 09/30/2023 12:00:00 AM Black, NH                   0        1315            1
 4 09/30/2023 12:00:00 AM Hispanic/Latino             0        7072            1
 5 09/30/2023 12:00:00 AM Multiple/Other, NH          0         734            1
 6 09/30/2023 12:00:00 AM Native Hawaiian / Pa…       0         121            1
 7 09/30/2023 12:00:00 AM White, NH                   0        6073            1
 8 10/07/2023 12:00:00 AM American Indian / Al…       0          68            2
 9 10/07/2023 12:00:00 AM Asian, NH                   0        3339            2
10 10/07/2023 12:00:00 AM Black, NH                   0        1547            2
# ℹ 116 more rows
# ℹ 2 more variables: `Race Sort Order` <dbl>, Figure_ID <dbl>
…
#Filtering Unknown in Column Race and Ethnicity
clean_cdc_data <- cdcdata %>%
  filter(!`Race and Ethnicity` %in% c("Unknown","Overall"))

# Print the filtered data
print(clean_cdc_data)

# A tibble: 126 × 7
   Week_Ending_Date       `Race and Ethnicity`  Percent Denominator `Date Order`
   <chr>                  <chr>                   <dbl>       <dbl>        <dbl>
 1 09/30/2023 12:00:00 AM American Indian / Al…       0          57            1
 2 09/30/2023 12:00:00 AM Asian, NH                   0        2897            1
 3 09/30/2023 12:00:00 AM Black, NH                   0        1315            1
 4 09/30/2023 12:00:00 AM Hispanic/Latino             0        7072            1
 5 09/30/2023 12:00:00 AM Multiple/Other, NH          0         734            1
 6 09/30/2023 12:00:00 AM Native Hawaiian / Pa…       0         121            1
 7 09/30/2023 12:00:00 AM White, NH                   0        6073            1
 8 10/07/2023 12:00:00 AM American Indian / Al…       0          68            2
 9 10/07/2023 12:00:00 AM Asian, NH                   0        3339            2
10 10/07/2023 12:00:00 AM Black, NH                   0        1547            2
# ℹ 116 more rows
# ℹ 2 more variables: `Race Sort Order` <dbl>, Figure_ID <dbl>
…
