Arlyn Santiago Data Analysis Portfolio - fitting exercise
…
parsnip model object

Call:
stats::lm(formula = Y ~ DOSE, data = data)

Coefficients:
(Intercept)         DOSE  
     323.06        58.21  

# RMSE and R-squared predictions
dc5_lm1_pred <- predict(dc5_lm1, new_data = dc5) 

dc5_lm1_pred

# A tibble: 120 × 1
   .pred
   <dbl>
 1 1778.
 2 1778.
 3 1778.
 4 1778.
 5 1778.
 6 1778.
 7 1778.
 8 1778.
 9 1778.
10 1778.
# ℹ 110 more rows
…
The black dots are the predictions from the original model on the training data. The blue points are the median predictions from the bootstrap samples. The red lines are the 89% confidence intervals for the predictions. There’s a pretty large spread around the line, which indicates that there may be a good amount of error in the mode’ls predictions. Most of the black points tend to fall decently far above or below the line, indicating a poor fit from the original model on our training data. While some of the confidence interval lines indicate that a few of our median predictions are close to the line, the majority of them still fall above the line, indicating underpredicting.

Exercise 10: Part 3

Using the fit from Model 2 of the training data to make predictions of the test data.

# Make predictions on training data 
train_pred <- predict(dc5_lm3, new_data = train_data)
print(train_data)

# A tibble: 90 × 6
       Y  DOSE   AGE SEX      WT    HT
   <dbl> <dbl> <int> <fct> <dbl> <dbl>
 1 3004.  50      28 0      83.2  1.74
 2 1347.  25      41 0      81    1.75
 3 2772.  37.5    28 0      78.3  1.72
 4 2028.  25      28 1      58.9  1.58
 5 2353.  50      37 0      99.1  1.78
 6  826.  25      30 0     105.   1.88
 7 3866.  25      23 0      65.3  1.65
 8 3126.  25      41 1      64.3  1.56
 9 1108.  25      48 1      79.5  1.62
10 2815.  37.5    26 0      84.5  1.77
# ℹ 80 more rows

# Make predictions on test data 
test_pred <- predict(dc5_lm3, new_data = test_data)
print(test_data)

# A tibble: 30 × 6
       Y  DOSE   AGE SEX      WT    HT
   <dbl> <dbl> <int> <fct> <dbl> <dbl>
 1 2549.  25      46 0      83    1.78
 2 2353.  37.5    43 1      64.4  1.56
 3 2009.  37.5    19 0      86.1  1.91
 4 2934.  37.5    46 0      71.2  1.67
 5 2085.  37.5    37 0     102.   1.81
 6 4835.  50      42 1      58    1.58
 7 3514.  50      32 0      78.9  1.74
 8 3906.  50      47 0      89.3  1.69
 9 3105.  50      45 0      99.1  1.81
10 2027.  25      20 0      80.5  1.88
# ℹ 20 more rows
…
